{
    "cli": {
      "version": ">= 3.13.3"
    },
    
      "build": {
        "preview": {
          "android": {
            "buildType": "apk"
          }
        },
        "preview2": {
          "android": {
            "gradleCommand": ":app:assembleRelease"
          }
        },
        "preview3": {
          "developmentClient": true
        },
        "production": {}
      }
    
  }
  